{
  "count": 28464,
  "cursor": "28987",
  "next_cursor": "28962",
  "items": [
    {
      "slug": "grinnell-selzer-28986",
      "start_date": "2018-11-24",
      "end_date": "2018-11-27",
      "created_at": "2018-12-06T20:54:02.000Z",
      "updated_at": "2018-12-06T16:54:02.000Z",
      "survey_house": "Grinnell/Selzer",
      "mode": "Live Phone",
      "url": "https://www.grinnell.edu/sites/default/files/docs/2018-12/Grinnell%20College%20National%20Poll_Nov18.pdf",
      "partisanship": "Nonpartisan",
      "partisan_affiliation": "None",
      "poll_questions": [
        {
          "text": "Do you approve or disapprove of the job Donald Trump is doing as president?",
          "question": {
            "slug": "00c -Pres-45-Trump - Job Approval - National",
            "name": "Trump, Donald - USPres - Job Approval",
            "tags": [],
            "charts": [
              "trump-job-approval"
            ],
            "election_date": null,
            "n_polls": 1526,
            "created_at": "2017-01-10T18:32:55.000Z",
            "responses": [
              {
                "label": "Approve",
                "name": "Approve",
                "party": null,
                "incumbent": false
              },
              {
                "label": "Disapprove",
                "name": "Disapprove",
                "party": null,
                "incumbent": false
              },
              {
                "label": "Undecided",
                "name": "Undecided",
                "party": null,
                "incumbent": false
              }
            ]
          },
          "sample_subpopulations": [
            {
              "name": "Adults",
              "observations": 1000,
              "margin_of_error": 3.1,
              "responses": [
                {
                  "text": "Approve",
                  "pollster_label": "Approve",
                  "value": 43
                },
                {
                  "text": "Disapprove",
                  "pollster_label": "Disapprove",
                  "value": 45
                },
                {
                  "text": "Not sure",
                  "pollster_label": "Undecided",
                  "value": 12
                }
              ]
            }
          ]
        }
      ]
    },
    {
      "slug": "rasmussen-28985",
      "start_date": "2018-12-03",
      "end_date": "2018-12-05",
      "created_at": "2018-12-06T20:52:35.000Z",
      "updated_at": "2018-12-06T16:52:35.000Z",
      "survey_house": "Rasmussen",
      "mode": "IVR/Online",
      "url": "http://www.rasmussenreports.com/public_content/politics/trump_administration/trump_approval_index_history",
      "partisanship": "Nonpartisan",
      "partisan_affiliation": "None",
      "poll_questions": [
        {
          "text": "",
          "question": {
            "slug": "00c -Pres-45-Trump - Job Approval - National",
            "name": "Trump, Donald - USPres - Job Approval",
            "tags": [],
            "charts": [
              "trump-job-approval"
            ],
            "election_date": null,
            "n_polls": 1526,
            "created_at": "2017-01-10T18:32:55.000Z",
            "responses": [
              {
                "label": "Approve",
                "name": "Approve",
                "party": null,
                "incumbent": false
              },
              {
                "label": "Disapprove",
                "name": "Disapprove",
                "party": null,
                "incumbent": false
              },
              {
                "label": "Undecided",
                "name": "Undecided",
                "party": null,
                "incumbent": false
              }
            ]
          },
          "sample_subpopulations": [
            {
              "name": "Likely Voters",
              "observations": 1500,
              "margin_of_error": 2.5,
              "responses": [
                {
                  "text": "Approve",
                  "pollster_label": "Approve",
                  "value": 49
                },
                {
                  "text": "Disapprove",
                  "pollster_label": "Disapprove",
                  "value": 50
                }
              ]
            }
          ]
        }
      ]
    },
    {
      "slug": "ipsos-reuters-28984",
      "start_date": "2018-11-28",
      "end_date": "2018-12-04",
      "created_at": "2018-12-06T03:01:01.000Z",
      "updated_at": "2018-12-05T23:01:01.000Z",
      "survey_house": "Ipsos/Reuters",
      "mode": "Internet",
      "url": "https://www.ipsos.com/sites/default/files/ct/news/documents/2018-12/2018_reuters_tracking_-_core_political_12_05_2018.pdf",
      "partisanship": "Nonpartisan",
      "partisan_affiliation": "None",
      "poll_questions": [
        {
          "text": "Overall, do you approve or disapprove about the way Donald Trump is handling his job as President?",
          "question": {
            "slug": "00c -Pres-45-Trump - Job Approval - National",
            "name": "Trump, Donald - USPres - Job Approval",
            "tags": [],
            "charts": [
              "trump-job-approval"
            ],
            "election_date": null,
            "n_polls": 1526,
            "created_at": "2017-01-10T18:32:55.000Z",
            "responses": [
              {
                "label": "Approve",
                "name": "Approve",
                "party": null,
                "incumbent": false
              },
              {
                "label": "Disapprove",
                "name": "Disapprove",
                "party": null,
                "incumbent": false
              },
              {
                "label": "Undecided",
                "name": "Undecided",
                "party": null,
                "incumbent": false
              }
            ]
          },
          "sample_subpopulations": [
            {
              "name": "Adults",
              "observations": 2401,
              "margin_of_error": null,
              "responses": [
                {
                  "text": "Approve",
                  "pollster_label": "Approve",
                  "value": 41
                },
                {
                  "text": "Disapprove",
                  "pollster_label": "Disapprove",
                  "value": 52
                },
                {
                  "text": "Not sure",
                  "pollster_label": "Undecided",
                  "value": 6
                }
              ]
            },
            {
              "name": "Adults - Democrat",
              "observations": 931,
              "margin_of_error": null,
              "responses": [
                {
                  "text": "Approve",
                  "pollster_label": "Approve",
                  "value": 14
                },
                {
                  "text": "Disapprove",
                  "pollster_label": "Disapprove",
                  "value": 84
                },
                {
                  "text": "Not sure",
                  "pollster_label": "Undecided",
                  "value": 2
                }
              ]
            },
            {
              "name": "Adults - Republican",
              "observations": 780,
              "margin_of_error": null,
              "responses": [
                {
                  "text": "Approve",
                  "pollster_label": "Approve",
                  "value": 82
                },
                {
                  "text": "Disapprove",
                  "pollster_label": "Disapprove",
                  "value": 17
                },
                {
                  "text": "Not sure",
                  "pollster_label": "Undecided",
                  "value": 1
                }
              ]
            },
            {
              "name": "Adults - independent",
              "observations": 390,
              "margin_of_error": null,
              "responses": [
                {
                  "text": "Approve",
                  "pollster_label": "Approve",
                  "value": 39
                },
                {
                  "text": "Disapprove",
                  "pollster_label": "Disapprove",
                  "value": 53
                },
                {
                  "text": "Not sure",
                  "pollster_label": "Undecided",
                  "value": 8
                }
              ]
            }
          ]
        }
      ]
    },
    {
      "slug": "yougov-economist-28983",
      "start_date": "2018-12-02",
      "end_date": "2018-12-04",
      "created_at": "2018-12-06T02:03:21.000Z",
      "updated_at": "2018-12-05T22:03:21.000Z",
      "survey_house": "YouGov/Economist",
      "mode": "Internet",
      "url": "https://d25d2506sfb94s.cloudfront.net/cumulus_uploads/document/yoolhxrark/econTabReport.pdf",
      "partisanship": "Nonpartisan",
      "partisan_affiliation": "None",
      "poll_questions": [
        {
          "text": "Do you approve or disapprove of the way Donald Trump is handling his job as President?",
          "question": {
            "slug": "00c -Pres-45-Trump - Job Approval - National",
            "name": "Trump, Donald - USPres - Job Approval",
            "tags": [],
            "charts": [
              "trump-job-approval"
            ],
            "election_date": null,
            "n_polls": 1526,
            "created_at": "2017-01-10T18:32:55.000Z",
            "responses": [
              {
                "label": "Approve",
                "name": "Approve",
                "party": null,
                "incumbent": false
              },
              {
                "label": "Disapprove",
                "name": "Disapprove",
                "party": null,
                "incumbent": false
              },
              {
                "label": "Undecided",
                "name": "Undecided",
                "party": null,
                "incumbent": false
              }
            ]
          },
          "sample_subpopulations": [
            {
              "name": "Adults",
              "observations": 1500,
              "margin_of_error": 3.1,
              "responses": [
                {
                  "text": "Strongly Approve",
                  "pollster_label": "Approve",
                  "value": 24
                },
                {
                  "text": "Somewhat Approve",
                  "pollster_label": "Approve",
                  "value": 19
                },
                {
                  "text": "Somewhat Disapprove",
                  "pollster_label": "Disapprove",
                  "value": 10
                },
                {
                  "text": "Strongly Disapprove",
                  "pollster_label": "Disapprove",
                  "value": 38
                },
                {
                  "text": "Not sure",
                  "pollster_label": "Undecided",
                  "value": 8
                }
              ]
            },
            {
              "name": "Adults - Democrat",
              "observations": 535,
              "margin_of_error": null,
              "responses": [
                {
                  "text": "Strongly Approve",
                  "pollster_label": "Approve",
                  "value": 3
                },
                {
                  "text": "Somewhat Approve",
                  "pollster_label": "Approve",
                  "value": 5
                },
                {
                  "text": "Somewhat Disapprove",
                  "pollster_label": "Disapprove",
                  "value": 10
                },
                {
                  "text": "Strongly Disapprove",
                  "pollster_label": "Disapprove",
                  "value": 78
                },
                {
                  "text": "Not sure",
                  "pollster_label": "Undecided",
                  "value": 4
                }
              ]
            },
            {
              "name": "Adults - Republican",
              "observations": 376,
              "margin_of_error": null,
              "responses": [
                {
                  "text": "Strongly Approve",
                  "pollster_label": "Approve",
                  "value": 59
                },
                {
                  "text": "Somewhat Approve",
                  "pollster_label": "Approve",
                  "value": 27
                },
                {
                  "text": "Somewhat Disapprove",
                  "pollster_label": "Disapprove",
                  "value": 6
                },
                {
                  "text": "Strongly Disapprove",
                  "pollster_label": "Disapprove",
                  "value": 4
                },
                {
                  "text": "Not sure",
                  "pollster_label": "Undecided",
                  "value": 4
                }
              ]
            },
            {
              "name": "Adults - independent",
              "observations": 589,
              "margin_of_error": null,
              "responses": [
                {
                  "text": "Strongly Approve",
                  "pollster_label": "Approve",
                  "value": 17
                },
                {
                  "text": "Somewhat Approve",
                  "pollster_label": "Approve",
                  "value": 24
                },
                {
                  "text": "Somewhat Disapprove",
                  "pollster_label": "Disapprove",
                  "value": 14
                },
                {
                  "text": "Strongly Disapprove",
                  "pollster_label": "Disapprove",
                  "value": 32
                },
                {
                  "text": "Not sure",
                  "pollster_label": "Undecided",
                  "value": 13
                }
              ]
            }
          ]
        }
      ]
    },
    {
      "slug": "kaiser-ff-28982",
      "start_date": "2018-11-14",
      "end_date": "2018-11-18",
      "created_at": "2018-12-06T01:44:23.000Z",
      "updated_at": "2018-12-05T21:44:23.000Z",
      "survey_house": "Kaiser FF",
      "mode": "Live Phone",
      "url": "http://files.kff.org/attachment/Topline-Kaiser-Health-Tracking-Poll-November-2018",
      "partisanship": "Nonpartisan",
      "partisan_affiliation": "None",
      "poll_questions": [
        {
          "text": "As you may know a health reform bill was signed into law in 2010, known commonly as the Affordable Care Act or Obamacare. Given what you know about the health reform law, do you have a generally (favorable) or generally (unfavorable) opinion of it? [GET ANSWER THEN ASK: Is that a very (favorable/unfavorable) or somewhat (favorable/unfavorable) opinion?] (rotate items in parentheses)",
          "question": {
            "slug": "00c -US-Health-Bill",
            "name": "Health Care Bill",
            "tags": [],
            "charts": [
              "us-health-bill"
            ],
            "election_date": null,
            "n_polls": 590,
            "created_at": "2009-07-30T09:23:08.000Z",
            "responses": [
              {
                "label": "Favor",
                "name": "Favor",
                "party": null,
                "incumbent": false
              },
              {
                "label": "Oppose",
                "name": "Oppose",
                "party": null,
                "incumbent": false
              },
              {
                "label": "Neither",
                "name": "Neither",
                "party": null,
                "incumbent": false
              },
              {
                "label": "Undecided",
                "name": "Undecided",
                "party": null,
                "incumbent": false
              },
              {
                "label": "No Opinion",
                "name": "Not Heard Enough",
                "party": null,
                "incumbent": false
              }
            ]
          },
          "sample_subpopulations": [
            {
              "name": "Adults",
              "observations": 1201,
              "margin_of_error": 3,
              "responses": [
                {
                  "text": "Very favorable",
                  "pollster_label": "Favor",
                  "value": 28
                },
                {
                  "text": "Somewhat favorable",
                  "pollster_label": "Favor",
                  "value": 25
                },
                {
                  "text": "Somewhat unfavorable",
                  "pollster_label": "Oppose",
                  "value": 14
                },
                {
                  "text": "Very unfavorable",
                  "pollster_label": "Oppose",
                  "value": 26
                },
                {
                  "text": "Don’t know/ Refused",
                  "pollster_label": "Undecided",
                  "value": 8
                }
              ]
            }
          ]
        },
        {
          "text": "Do you approve or disapprove of the way Donald Trump is handling his job as President?",
          "question": {
            "slug": "00c -Pres-45-Trump - Job Approval - National",
            "name": "Trump, Donald - USPres - Job Approval",
            "tags": [],
            "charts": [
              "trump-job-approval"
            ],
            "election_date": null,
            "n_polls": 1526,
            "created_at": "2017-01-10T18:32:55.000Z",
            "responses": [
              {
                "label": "Approve",
                "name": "Approve",
                "party": null,
                "incumbent": false
              },
              {
                "label": "Disapprove",
                "name": "Disapprove",
                "party": null,
                "incumbent": false
              },
              {
                "label": "Undecided",
                "name": "Undecided",
                "party": null,
                "incumbent": false
              }
            ]
          },
          "sample_subpopulations": [
            {
              "name": "Adults",
              "observations": 1201,
              "margin_of_error": 3,
              "responses": [
                {
                  "text": "Approve",
                  "pollster_label": "Approve",
                  "value": 37
                },
                {
                  "text": "Disapprove",
                  "pollster_label": "Disapprove",
                  "value": 58
                },
                {
                  "text": "Don't Know/Refused",
                  "pollster_label": "Undecided",
                  "value": 5
                }
              ]
            }
          ]
        }
      ]
    }
  ]
}
