{
  "count": 28464,
  "cursor": "28987",
  "next_cursor": "28962",
  "items": [
    {
      "slug": "grinnell-selzer-28986",
      "start_date": "2018-11-24",
      "end_date": "2018-11-27",
      "created_at": "2018-12-06T20:54:02.000Z",
      "updated_at": "2018-12-06T16:54:02.000Z",
      "survey_house": "Grinnell/Selzer",
      "mode": "Live Phone",
      "url": "https://www.grinnell.edu/sites/default/files/docs/2018-12/Grinnell%20College%20National%20Poll_Nov18.pdf",
      "partisanship": "Nonpartisan",
      "partisan_affiliation": "None",
      "poll_questions": [
        {
          "text": "Do you approve or disapprove of the job Donald Trump is doing as president?",
          "question": {
            "slug": "00c -Pres-45-Trump - Job Approval - National",
            "name": "Trump, Donald - USPres - Job Approval",
            "tags": [],
            "charts": [
              "trump-job-approval"
            ],
            "election_date": null,
            "n_polls": 1526,
            "created_at": "2017-01-10T18:32:55.000Z",
            "responses": [
              {
                "label": "Approve",
                "name": "Approve",
                "party": null,
                "incumbent": false
              },
              {
                "label": "Disapprove",
                "name": "Disapprove",
                "party": null,
                "incumbent": false
              },
              {
                "label": "Undecided",
                "name": "Undecided",
                "party": null,
                "incumbent": false
              }
            ]
          },
          "sample_subpopulations": [
            {
              "name": "Adults",
              "observations": 1000,
              "margin_of_error": 3.1,
              "responses": [
                {
                  "text": "Approve",
                  "pollster_label": "Approve",
                  "value": 43
                },
                {
                  "text": "Disapprove",
                  "pollster_label": "Disapprove",
                  "value": 45
                },
                {
                  "text": "Not sure",
                  "pollster_label": "Undecided",
                  "value": 12
                }
              ]
            }
          ]
        }
      ]
    },
    {
      "slug": "rasmussen-28985",
      "start_date": "2018-12-03",
      "end_date": "2018-12-05",
      "created_at": "2018-12-06T20:52:35.000Z",
      "updated_at": "2018-12-06T16:52:35.000Z",
      "survey_house": "Rasmussen",
      "mode": "IVR/Online",
      "url": "http://www.rasmussenreports.com/public_content/politics/trump_administration/trump_approval_index_history",
      "partisanship": "Nonpartisan",
      "partisan_affiliation": "None",
      "poll_questions": [
        {
          "text": "",
          "question": {
            "slug": "00c -Pres-45-Trump - Job Approval - National",
            "name": "Trump, Donald - USPres - Job Approval",
            "tags": [],
            "charts": [
              "trump-job-approval"
            ],
            "election_date": null,
            "n_polls": 1526,
            "created_at": "2017-01-10T18:32:55.000Z",
            "responses": [
              {
                "label": "Approve",
                "name": "Approve",
                "party": null,
                "incumbent": false
              },
              {
                "label": "Disapprove",
                "name": "Disapprove",
                "party": null,
                "incumbent": false
              },
              {
                "label": "Undecided",
                "name": "Undecided",
                "party": null,
                "incumbent": false
              }
            ]
          },
          "sample_subpopulations": [
            {
              "name": "Likely Voters",
              "observations": 1500,
              "margin_of_error": 2.5,
              "responses": [
                {
                  "text": "Approve",
                  "pollster_label": "Approve",
                  "value": 49
                },
                {
                  "text": "Disapprove",
                  "pollster_label": "Disapprove",
                  "value": 50
                }
              ]
            }
          ]
        }
      ]
    },
  ]
}
